{
  "7adc6cdde1172c646f8dda7fcb1186d148e59e6d2a40774bd7e03281a653f19c": true,
  "d64a5b98ad82d1490c6b4000a35d16df16172ebee8c51369a3e09f0e7b77c286": true,
  "d40175d82210a9d2052d96ef3f83518c3661e9f1482205623a703f36f3b32567": true,
  "3c6e0524ad0b69a89d4c657e2408bbe8267b83ac073698ea408de9d8cc0a4190": true,
  "195145d1abb010a6dd2e5fb2ba4b4d70c922d1224749352ce0a7a65693c0e8c0": true,
  "3461e77bed05549025acef0237e48168c158e581f45bd8b44d0cdb0c92fdd77c": true,
  "11a8bf5cc96707695acdb639a5f90a7a23853e07d1dd23d97575959a6ed9259f": true,
  "173a788ded920899b0bc621d843efef0e3b7ca6515cdaa54d444c3e23e22251b": true,
  "49ad4fc13ab4cd43621f4ced8deae6dda5335014a2b6c4ecaeb41e123777730f": true,
  "28668cb074b4abe80c4012c3cceaddcfcf6fe8cdc5f2b8f9e3f4d63b8fe19d2c": true,
  "467beb4d0bc7d6c333279c651c1c44251fc1366e05b555d84c7486be84b448b4": true,
  "4b105114176087ad082cfb41c1a4de2ef3f17e4aecc9a23b0cf5a7589587419b": true,
  "9762fff691c4862bdeafd0aa1a221d5758935dd8c67adba3515631b7e1cc60c4": true,
  "a01c9d4b6a6c4e335d0662ce1696775221ea6f87405afea3b19293622b37f7c2": true,
  "7e42a2e0e9ce5bf45feafdd182928ea884b90659e4496c0e96a8a15d41be9f2c": true,
  "845323abe430da61ab481325c96c3e7c3e05269471d3ee72f276f1bf219241fc": true,
  "66bad5d0c3225476008e2dc9302136b7135ef070a25e6043caeef0b04054fa53": true,
  "7363b488d7b7f3d19622557dd5729f367e0fcdfbad527fa0b0b5710f874922cd": true,
  "31d98d47012ad44e1cb4cc270b0a0cf4b946ec72de4800e9df613ccf5da34e37": true,
  "7bf873aeb1b77ee3c415ebe98abc4e91b9e56957c61e057532f085b2c4cbcaf5": true,
  "c612b315c3a9a4ac3e2222ff80f4b0e75601306b0b16d4b62d1646b10c411575": true,
  "8f716f2e37aa530d0dbfc9f4f656c993789e9d5264b676d9ce7816124ef8177d": true,
  "4b88b7dd3dcdc1299caeb0e7ec010df134b68b637172519a2b0cf5703765f733": true,
  "25a73a3ba3372e98d9d146d9ce94c8055ffb4e44eb85a24b497387aa39344ca0": true,
  "872eacb8d1dfddd5602147146f06e29ac228b33a8196dcaf1b0a03d96e3d2215": true,
  "5b179d4dbdb7ecf73c789d05e32fbd6afc77f1a8ea8056d17f8e2c209068a78d": true,
  "605ba05df5084fb103dbee1c26345448e282bca47c47d63a2ccc8ebbc2dcc5f0": true,
  "4a501d5ae0786ac55a045407308d15bba784ecd5e28d7f8ddab37ee95f2787c4": true,
  "3bd5283315296175cb8ac9db8e7d042aa242bc28f146f89782da64309850ecba": true,
  "854c342f3c4661f33025d9178b1f75283bec4cf8edf1380708dcc98696926843": true,
  "89ed26367cdb9b771858e026f2eb95bfdb90e5ae943e716575327ec325f39c44": true
}